<?xml version="1.0" encoding="UTF-8"?><svg enable-background="new 0 0 256 463" height="463px" version="1.1" viewBox="0 0 256 463" width="256px" x="0px" xml:space="preserve" xmlns="http://www.w3.org/2000/svg" xmlns:xlink="http://www.w3.org/1999/xlink" y="0px">
<defs>
<g>
<symbol id="glyph0-0" overflow="visible">
<path d="M 16.1875 0 L 16.1875 -22.71875 L 0 -22.71875 L 0 0 Z M 13.640625 -21.046875 L 8.125 -12.8125 L 2.578125 -21.046875 Z M 14.59375 -3.046875 L 9.078125 -11.359375 L 14.59375 -19.609375 Z M 2.578125 -1.640625 L 8.125 -9.875 L 13.640625 -1.640625 Z M 1.640625 -19.609375 L 7.109375 -11.359375 L 1.640625 -3.046875 Z M 1.640625 -19.609375 " style="stroke:none;"/>
</symbol>
<symbol id="glyph0-1" overflow="visible">
<path d="M 12.578125 -13.953125 L 5.4375 -23.375 L 16.53125 -23.375 C 16.875 -22 17.0625 -20.5625 17.140625 -19.1875 C 17.671875 -18.96875 18.15625 -18.96875 18.734375 -19.1875 C 18.96875 -21.578125 19.109375 -22.609375 19.03125 -25.265625 L 18.765625 -25.5 C 16.53125 -25.421875 12.734375 -25.421875 10.1875 -25.421875 L 2.703125 -25.421875 C 2.3125 -25.125 1.859375 -24.390625 1.75 -23.75 L 9.6875 -13.265625 L 1.140625 -1.75 C 1.140625 -1.140625 1.21875 -0.609375 1.515625 -0.03125 L 10.71875 -0.03125 C 13.265625 -0.03125 16.953125 -0.03125 19.1875 0.03125 L 19.453125 -0.234375 C 19.765625 -2.65625 19.84375 -4.71875 19.84375 -6.953125 C 19.296875 -7.140625 18.765625 -7.21875 18.234375 -7.0625 C 17.9375 -5.546875 17.515625 -3.90625 17.03125 -2.46875 L 4.21875 -2.46875 L 12.578125 -13.609375 Z M 12.578125 -13.953125 " style="stroke:none;"/>
</symbol>
<symbol id="glyph0-2" overflow="visible">
<path d="M 3.234375 0.234375 C 4.296875 0.234375 5.28125 0.078125 5.96875 -0.234375 C 7.0625 -3.84375 8.65625 -6.953125 10.5625 -9.5 C 12.046875 -2.78125 13.1875 0.53125 14.75 0.53125 C 15.953125 0.53125 17.515625 -0.34375 18.65625 -1.4375 C 18.734375 -2.171875 18.5 -2.96875 17.96875 -3.34375 C 17.21875 -3.078125 15.6875 -2.78125 14.625 -2.65625 C 13.71875 -4.984375 12.734375 -7.59375 12.015625 -11.203125 C 13.6875 -13 15.625 -14.40625 17.703125 -15.234375 C 17.671875 -16.484375 17.296875 -17.4375 16.375 -18.09375 C 10.71875 -15.734375 7.265625 -9.125 5.46875 -2.8125 L 5.4375 -2.8125 C 5.359375 -7.640625 5.546875 -12.125 5.921875 -17.5625 C 5.359375 -17.78125 4.90625 -17.890625 4.296875 -17.890625 C 3.71875 -17.890625 3.109375 -17.78125 2.625 -17.5625 C 2.921875 -12.28125 2.96875 -6.15625 2.96875 -0.03125 Z M 3.234375 0.234375 " style="stroke:none;"/>
</symbol>
<symbol id="glyph0-3" overflow="visible">
<path d="M 9.390625 -18.234375 C 14.484375 -18.234375 17.515625 -13.109375 17.515625 -8.546875 C 17.515625 -3.453125 14.96875 0.53125 9.765625 0.53125 C 4.640625 0.53125 1.640625 -4.375 1.640625 -9.15625 C 1.640625 -14.09375 4.0625 -18.234375 9.390625 -18.234375 Z M 9.046875 -1.640625 C 13.40625 -1.640625 14.9375 -5.8125 14.9375 -9.390625 C 14.9375 -12.015625 13.953125 -14.0625 12.8125 -15.234375 C 12.3125 -15.734375 10.9375 -16.078125 10.109375 -16.078125 C 5.734375 -16.078125 4.21875 -11.859375 4.21875 -8.328125 C 4.21875 -5.65625 5.203125 -3.609375 6.34375 -2.4375 C 6.84375 -1.96875 8.203125 -1.640625 9.046875 -1.640625 Z M 13.828125 -27.015625 C 13.21875 -28.046875 12.34375 -28.609375 10.875 -28.65625 L 7.859375 -20.9375 C 8.28125 -20.375 8.8125 -20.109375 9.421875 -20.109375 L 13.828125 -26.640625 Z M 13.828125 -27.015625 " style="stroke:none;"/>
</symbol>
<symbol id="glyph0-4" overflow="visible">
<path d="M 1.5625 -28.265625 C 1.4375 -27.359375 1.703125 -26.40625 2.28125 -25.71875 C 2.78125 -25.765625 3.453125 -25.84375 4.03125 -25.84375 C 6.984375 -25.84375 8.25 -24.4375 9.265625 -20.5625 L 9.765625 -18.625 C 6.765625 -12.3125 3.375 -5.515625 0.984375 -0.984375 C 1.640625 -0.1875 2.46875 0.265625 3.6875 0.375 C 6.046875 -5.203125 7.828125 -9.203125 10.75 -14.96875 L 13.796875 -3.578125 C 14.484375 -0.984375 15.625 0.53125 16.640625 0.53125 C 17.828125 0.53125 19.34375 -0.296875 20.375 -1.4375 C 20.4375 -2.171875 20.21875 -2.96875 19.6875 -3.34375 C 18.84375 -3.046875 17.484375 -2.734375 16.484375 -2.65625 C 14.546875 -7.796875 12.046875 -16.71875 10.40625 -23.328125 C 9.46875 -27.203125 7.03125 -28.875 4.78125 -28.875 C 3.71875 -28.875 2.546875 -28.609375 1.5625 -28.265625 Z M 1.5625 -28.265625 " style="stroke:none;"/>
</symbol>
<symbol id="glyph0-5" overflow="visible">
<path d="M 16.453125 -2.65625 C 16.21875 -3.71875 16.078125 -5.09375 16.078125 -6.765625 C 16.078125 -9.125 16.6875 -12.125 18.203125 -17.03125 C 17.4375 -17.515625 16.5625 -17.859375 15.546875 -17.859375 L 15.28125 -17.59375 L 14.78125 -13.484375 L 14.75 -13.484375 C 13.53125 -16.1875 11.40625 -18.203125 8.546875 -18.203125 C 4.03125 -18.203125 1.640625 -14.140625 1.640625 -8.28125 C 1.640625 -4.1875 3.265625 0.53125 7.453125 0.53125 C 9.578125 0.53125 11.9375 -1.375 14.25 -6.078125 L 14.328125 -6.078125 C 13.90625 -0.953125 15.390625 0.53125 16.609375 0.53125 C 17.828125 0.53125 19.109375 -0.15625 20.4375 -1.4375 C 20.59375 -2.09375 20.375 -2.890625 19.796875 -3.34375 C 19.03125 -3.078125 17.515625 -2.78125 16.453125 -2.65625 Z M 6.578125 -1.9375 C 5.359375 -1.9375 4.59375 -2.84375 4.296875 -3.6875 C 4.0625 -4.328125 3.796875 -5.625 3.796875 -6.84375 C 3.796875 -11.859375 5.890625 -15.65625 9.203125 -15.65625 C 11.171875 -15.65625 13.109375 -13.90625 14.40625 -11.140625 C 12.953125 -5.625 8.8125 -1.9375 6.578125 -1.9375 Z M 6.578125 -1.9375 " style="stroke:none;"/>
</symbol>
<symbol id="glyph0-6" overflow="visible">
<path d="M 4.71875 -1.96875 C 6 -0.453125 8.015625 0.421875 9.953125 0.421875 C 14.625 0.421875 17.515625 -3.375 17.515625 -7.9375 C 17.515625 -13.828125 14.484375 -18.234375 9.046875 -18.234375 C 4.828125 -18.234375 2.28125 -13.828125 2.28125 -7.21875 C 2.28125 -3.234375 2.625 3.90625 3.53125 9.875 C 4.515625 9.875 5.734375 9.578125 6.578125 9.046875 C 5.8125 6.453125 4.984375 2.515625 4.640625 -1.96875 Z M 4.515625 -5.703125 C 4.515625 -12.125 6.53125 -15.734375 10.03125 -15.734375 C 12.015625 -15.734375 13.640625 -14.484375 14.25 -13.71875 C 14.59375 -13.296875 15.3125 -11.171875 15.3125 -9.078125 C 15.3125 -4.515625 12.28125 -2.09375 8.96875 -2.09375 C 7.484375 -2.09375 5.734375 -2.8125 4.5625 -3.875 C 4.515625 -4.484375 4.515625 -5.09375 4.515625 -5.703125 Z M 4.515625 -5.703125 " style="stroke:none;"/>
</symbol>
<symbol id="glyph1-0" overflow="visible">
<path d="M 16.1875 0 L 16.1875 -22.71875 L 0 -22.71875 L 0 0 Z M 13.640625 -21.046875 L 8.125 -12.8125 L 2.578125 -21.046875 Z M 14.59375 -3.046875 L 9.078125 -11.359375 L 14.59375 -19.609375 Z M 2.578125 -1.640625 L 8.125 -9.875 L 13.640625 -1.640625 Z M 1.640625 -19.609375 L 7.109375 -11.359375 L 1.640625 -3.046875 Z M 1.640625 -19.609375 " style="stroke:none;"/>
</symbol>
<symbol id="glyph1-1" overflow="visible">
<path d="M 13.03125 -14.09375 L 6.34375 -22.984375 L 16.640625 -22.984375 C 16.984375 -21.625 17.171875 -20.171875 17.25 -18.8125 C 17.9375 -18.578125 18.578125 -18.578125 19.265625 -18.8125 C 19.5625 -21.234375 19.6875 -22.53125 19.609375 -25.1875 L 19.296875 -25.5 C 16.953125 -25.421875 13.03125 -25.421875 10.375 -25.421875 L 2.703125 -25.421875 C 2.171875 -24.921875 1.828125 -24.28125 1.671875 -23.40625 L 9.421875 -13.109375 L 1.25 -2.09375 C 1.25 -1.375 1.375 -0.6875 1.671875 -0.03125 L 10.828125 -0.03125 C 13.484375 -0.03125 17.40625 -0.03125 19.765625 0.03125 L 20.0625 -0.265625 C 20.375 -2.921875 20.484375 -5.25 20.484375 -7.453125 C 19.796875 -7.671875 19.15625 -7.75 18.46875 -7.59375 C 18.15625 -6.125 17.703125 -4.375 17.21875 -2.96875 L 5.015625 -2.96875 L 13.03125 -13.6875 Z M 13.03125 -14.09375 " style="stroke:none;"/>
</symbol>
<symbol id="glyph1-2" overflow="visible">
<path d="M 3.078125 0.1875 C 4.25 0.15625 5.59375 -0.03125 6.390625 -0.375 C 7.53125 -3.984375 9 -6.953125 10.828125 -9.3125 C 12.28125 -2.890625 13.40625 0.53125 14.890625 0.53125 C 16.265625 0.53125 17.96875 -0.421875 19.078125 -1.59375 C 19.1875 -2.578125 18.8125 -3.34375 18.28125 -3.796875 C 17.25 -3.5 16.1875 -3.265625 15.015625 -3.1875 C 14.0625 -5.390625 13.21875 -7.671875 12.46875 -11.203125 C 14.140625 -12.875 16 -14.140625 18.125 -15.015625 C 18.046875 -16.484375 17.5625 -17.5625 16.484375 -18.234375 C 10.9375 -16.109375 7.796875 -9.84375 5.859375 -3.265625 L 5.78125 -3.265625 C 5.78125 -8.09375 5.859375 -12.390625 6.390625 -17.703125 C 5.734375 -17.9375 5.09375 -18.046875 4.40625 -18.046875 C 3.71875 -18.046875 3.046875 -17.9375 2.4375 -17.703125 C 2.734375 -12.28125 2.78125 -6.609375 2.78125 -0.109375 Z M 3.078125 0.1875 " style="stroke:none;"/>
</symbol>
<symbol id="glyph1-3" overflow="visible">
<path d="M 9.53125 -18.390625 C 14.859375 -18.390625 17.96875 -13.21875 17.96875 -8.625 C 17.96875 -3.3125 15.359375 0.53125 9.953125 0.53125 C 4.640625 0.53125 1.515625 -4.640625 1.515625 -9.234375 C 1.515625 -14.4375 4.03125 -18.390625 9.53125 -18.390625 Z M 9.265625 -2.015625 C 13.34375 -2.015625 14.75 -6.453125 14.75 -9.6875 C 14.75 -11.96875 13.90625 -13.984375 12.84375 -15.125 C 12.390625 -15.578125 11.015625 -15.84375 10.21875 -15.84375 C 6.15625 -15.84375 4.75 -11.40625 4.75 -8.171875 C 4.75 -5.890625 5.59375 -3.875 6.65625 -2.734375 C 7.109375 -2.28125 8.46875 -2.015625 9.265625 -2.015625 Z M 14.4375 -27.390625 C 13.6875 -28.46875 12.65625 -29.21875 10.90625 -29.1875 L 7.859375 -21.28125 C 8.4375 -20.59375 8.9375 -20.296875 9.765625 -20.25 L 14.4375 -26.9375 Z M 14.4375 -27.390625 " style="stroke:none;"/>
</symbol>
<symbol id="glyph1-4" overflow="visible">
<path d="M 1.375 -28.234375 C 1.25 -27.171875 1.5625 -26.03125 2.203125 -25.15625 C 2.703125 -25.234375 3.3125 -25.3125 3.953125 -25.3125 C 6.953125 -25.3125 8.328125 -23.75 9.34375 -20.0625 L 9.734375 -18.703125 C 6.65625 -12.46875 3.34375 -5.921875 0.796875 -1.296875 C 1.59375 -0.265625 2.625 0.234375 4.03125 0.375 C 6.390625 -5.171875 8.125 -9.125 10.9375 -14.359375 L 13.953125 -3.578125 C 14.671875 -0.984375 15.953125 0.53125 16.828125 0.53125 C 18.15625 0.53125 19.765625 -0.421875 20.828125 -1.59375 C 20.9375 -2.578125 20.5625 -3.34375 20.03125 -3.796875 C 19.078125 -3.5 18.046875 -3.265625 16.953125 -3.1875 C 14.96875 -8.515625 12.609375 -15.953125 10.671875 -23.296875 C 9.796875 -26.59375 7.5625 -28.875 5.015625 -28.875 C 3.640625 -28.875 2.515625 -28.65625 1.375 -28.234375 Z M 1.375 -28.234375 " style="stroke:none;"/>
</symbol>
<symbol id="glyph1-5" overflow="visible">
<path d="M 14.8125 -5.921875 C 14.40625 -1.296875 15.8125 0.53125 16.984375 0.53125 C 18.359375 0.53125 20.0625 -0.421875 21.171875 -1.59375 C 21.28125 -2.578125 20.90625 -3.34375 20.375 -3.796875 C 19.34375 -3.5 18.28125 -3.265625 17.09375 -3.1875 C 16.875 -4.21875 16.71875 -5.359375 16.71875 -6.765625 C 16.71875 -9.15625 17.21875 -12.203125 18.890625 -17.09375 C 17.96875 -17.703125 16.90625 -18.09375 15.625 -18.09375 L 15.3125 -17.78125 L 14.859375 -13.6875 L 14.78125 -13.6875 C 13.53125 -16.375 11.515625 -18.390625 8.59375 -18.390625 C 4.03125 -18.390625 1.515625 -14.25 1.515625 -8.4375 C 1.515625 -4.109375 3.265625 0.53125 7.53125 0.53125 C 10.03125 0.53125 12.5 -1.4375 14.78125 -5.921875 Z M 6.65625 -2.46875 C 5.65625 -2.46875 4.75 -3.1875 4.453125 -4.03125 C 4.21875 -4.59375 4.0625 -5.96875 4.0625 -7.03125 C 4.0625 -11.46875 5.96875 -15.15625 9.3125 -15.15625 C 11.25 -15.15625 13.078125 -13.71875 14.40625 -11.171875 C 12.875 -5.859375 9.046875 -2.46875 6.65625 -2.46875 Z M 6.65625 -2.46875 " style="stroke:none;"/>
</symbol>
<symbol id="glyph1-6" overflow="visible">
<path d="M 4.859375 -2.171875 C 6.15625 -0.5625 8.28125 0.421875 10.1875 0.421875 C 14.75 0.421875 17.78125 -3.15625 17.78125 -7.859375 C 17.78125 -14.09375 14.59375 -18.390625 9.078125 -18.390625 C 4.75 -18.390625 2.09375 -14.140625 2.09375 -7.328125 C 2.09375 -3.3125 2.4375 3.875 3.3125 9.875 C 4.515625 9.796875 5.859375 9.5 6.953125 8.859375 C 6.078125 6.125 5.09375 2.234375 4.75 -2.171875 Z M 4.640625 -5.625 C 4.640625 -11.734375 6.65625 -15.15625 10.109375 -15.15625 C 12.15625 -15.15625 13.90625 -14.09375 14.4375 -13.296875 C 14.78125 -12.734375 15.234375 -11.015625 15.234375 -9.421875 C 15.234375 -4.90625 12.234375 -2.8125 8.859375 -2.8125 C 7.59375 -2.8125 5.921875 -3.375 4.640625 -4.296875 Z M 4.640625 -5.625 " style="stroke:none;"/>
</symbol>
<symbol id="glyph2-0" overflow="visible">
<path d="M 16.1875 0 L 16.1875 -22.71875 L 0 -22.71875 L 0 0 Z M 13.640625 -21.046875 L 8.125 -12.8125 L 2.578125 -21.046875 Z M 14.59375 -3.046875 L 9.078125 -11.359375 L 14.59375 -19.609375 Z M 2.578125 -1.640625 L 8.125 -9.875 L 13.640625 -1.640625 Z M 1.640625 -19.609375 L 7.109375 -11.359375 L 1.640625 -3.046875 Z M 1.640625 -19.609375 " style="stroke:none;"/>
</symbol>
<symbol id="glyph2-1" overflow="visible">
<path d="M 13.34375 -14.484375 L 7.40625 -22.265625 L 16.296875 -22.265625 C 16.609375 -20.90625 16.796875 -19.453125 16.875 -18.09375 C 17.859375 -17.859375 18.765625 -17.859375 19.71875 -18.09375 C 20.140625 -20.59375 20.21875 -22.375 20.140625 -25.078125 L 19.765625 -25.5 C 17.21875 -25.421875 13.03125 -25.421875 10.140625 -25.421875 L 2.625 -25.421875 C 1.78125 -24.59375 1.328125 -23.5625 1.171875 -22.234375 L 8.28125 -12.875 L 0.875 -2.734375 C 0.875 -1.78125 1.0625 -0.875 1.40625 -0.03125 L 10.453125 -0.03125 C 13.34375 -0.03125 17.5625 -0.03125 20.140625 0.03125 L 20.515625 -0.34375 C 20.828125 -3.421875 20.96875 -5.96875 20.96875 -8.125 C 19.984375 -8.4375 19.109375 -8.515625 18.15625 -8.359375 C 17.859375 -6.875 17.328125 -5.046875 16.828125 -3.6875 L 5.859375 -3.6875 L 13.34375 -13.90625 Z M 13.34375 -14.484375 " style="stroke:none;"/>
</symbol>
<symbol id="glyph2-2" overflow="visible">
<path d="M 2.890625 0.1875 C 4.328125 0.109375 5.78125 -0.15625 6.796875 -0.640625 C 7.828125 -4.03125 9.265625 -6.765625 11.09375 -8.890625 C 12.3125 -3.453125 13.640625 0.53125 15.15625 0.53125 C 16.875 0.53125 18.734375 -0.609375 19.90625 -1.90625 C 19.90625 -3.109375 19.453125 -4.0625 18.8125 -4.671875 C 17.859375 -4.453125 16.796875 -4.21875 15.65625 -4.140625 C 14.75 -6.046875 14.015625 -7.9375 13.296875 -11.09375 C 14.96875 -12.5 16.828125 -13.609375 18.921875 -14.40625 C 18.765625 -16.375 18.046875 -17.828125 16.71875 -18.546875 C 11.328125 -16.984375 8.015625 -10.984375 5.921875 -3.953125 L 5.8125 -3.984375 C 5.96875 -8.8125 6.1875 -12.875 7.0625 -17.96875 C 6.234375 -18.234375 5.390625 -18.359375 4.515625 -18.359375 C 3.640625 -18.359375 2.8125 -18.234375 2.015625 -17.96875 C 2.390625 -12.46875 2.46875 -6.796875 2.46875 -0.1875 Z M 2.890625 0.1875 " style="stroke:none;"/>
</symbol>
<symbol id="glyph2-3" overflow="visible">
<path d="M 9.84375 -18.703125 C 15.578125 -18.703125 18.890625 -13.453125 18.890625 -8.78125 C 18.890625 -3.375 16.078125 0.53125 10.34375 0.53125 C 4.59375 0.53125 1.296875 -4.71875 1.296875 -9.390625 C 1.296875 -14.703125 3.984375 -18.703125 9.84375 -18.703125 Z M 9.6875 -2.703125 C 13.078125 -2.703125 14.25 -6.796875 14.25 -9.765625 C 14.25 -11.890625 13.5625 -13.796875 12.65625 -14.859375 C 12.3125 -15.28125 11.171875 -15.46875 10.484375 -15.46875 C 7.109375 -15.46875 5.921875 -11.359375 5.921875 -8.390625 C 5.921875 -6.265625 6.609375 -4.40625 7.53125 -3.34375 C 7.859375 -2.890625 9 -2.703125 9.6875 -2.703125 Z M 15.390625 -28.125 C 14.515625 -29.375 13.03125 -30.171875 11.140625 -30.171875 L 7.984375 -21.8125 C 8.4375 -21.046875 9.234375 -20.59375 10.21875 -20.5625 L 15.390625 -27.546875 Z M 15.390625 -28.125 " style="stroke:none;"/>
</symbol>
<symbol id="glyph2-4" overflow="visible">
<path d="M 0.984375 -28.15625 C 0.875 -26.796875 1.25 -25.15625 2.046875 -23.9375 C 2.546875 -24.015625 3.109375 -24.09375 3.984375 -24.09375 C 7.03125 -24.09375 8.515625 -22.453125 9.53125 -19.109375 L 9.65625 -18.65625 C 6.6875 -12.734375 3.078125 -6.578125 0.53125 -2.171875 C 1.59375 -0.6875 3.078125 0.15625 4.859375 0.34375 C 7.109375 -4.71875 8.890625 -8.46875 11.359375 -13.03125 L 14.25 -3.578125 C 15.046875 -0.984375 16.21875 0.53125 17.328125 0.53125 C 18.96875 0.53125 20.640625 -0.5625 21.78125 -1.859375 C 21.78125 -3 21.4375 -4.03125 20.703125 -4.640625 C 19.765625 -4.40625 18.890625 -4.21875 17.78125 -4.140625 C 15.8125 -9.265625 13.609375 -16 11.515625 -23.21875 C 10.5625 -26.53125 8.203125 -28.875 5.46875 -28.875 C 3.796875 -28.875 2.359375 -28.65625 0.984375 -28.15625 Z M 0.984375 -28.15625 " style="stroke:none;"/>
</symbol>
<symbol id="glyph2-5" overflow="visible">
<path d="M 15.6875 -5.65625 C 15.390625 -1.140625 16.5625 0.53125 17.859375 0.53125 C 19.296875 0.53125 21.28125 -0.53125 22.5 -1.90625 C 22.453125 -3.15625 22 -4.109375 21.359375 -4.671875 C 20.40625 -4.453125 19.34375 -4.21875 18.234375 -4.140625 C 18.046875 -5.09375 17.890625 -6.234375 17.890625 -7.59375 C 17.890625 -9.765625 18.4375 -12.6875 20.140625 -17.25 C 18.96875 -18.09375 17.59375 -18.5 15.765625 -18.5 L 15.390625 -18.125 L 14.96875 -14.140625 L 14.859375 -14.140625 C 13.5625 -16.828125 11.625 -18.765625 8.65625 -18.765625 C 3.984375 -18.765625 1.296875 -14.515625 1.296875 -8.734375 C 1.296875 -3.71875 3.578125 0.53125 7.984375 0.53125 C 11.015625 0.53125 13.5625 -1.59375 15.578125 -5.703125 Z M 6.953125 -3.578125 C 6.078125 -3.578125 5.25 -4.03125 4.9375 -4.640625 C 4.671875 -5.125 4.515625 -6.3125 4.515625 -7.296875 C 4.515625 -10.984375 6.34375 -14.21875 9.390625 -14.21875 C 11.25 -14.21875 13.03125 -13.078125 14.328125 -11.09375 C 12.734375 -6.34375 9.34375 -3.578125 6.953125 -3.578125 Z M 6.953125 -3.578125 " style="stroke:none;"/>
</symbol>
<symbol id="glyph2-6" overflow="visible">
<path d="M 5.28125 -1.9375 C 6.53125 -0.5 8.46875 0.421875 10.640625 0.421875 C 15.015625 0.421875 18.3125 -3 18.3125 -8.0625 C 18.3125 -14.40625 14.671875 -18.765625 9.125 -18.765625 C 4.640625 -18.765625 1.75 -14.75 1.75 -7.59375 C 1.75 -3.5 2.09375 3.796875 2.84375 9.875 C 4.59375 9.953125 6.34375 9.421875 7.71875 8.515625 C 6.578125 5.546875 5.546875 2.125 5.125 -1.90625 Z M 4.984375 -5.46875 C 4.984375 -11.015625 6.875 -14.21875 10.296875 -14.21875 C 12.203125 -14.21875 13.796875 -13.375 14.28125 -12.6875 C 14.625 -12.203125 15.09375 -10.828125 15.09375 -9.46875 C 15.09375 -5.625 12.15625 -3.90625 8.9375 -3.90625 C 7.59375 -3.90625 6.15625 -4.296875 4.984375 -4.9375 Z M 4.984375 -5.46875 " style="stroke:none;"/>
</symbol>
<symbol id="glyph3-0" overflow="visible">
<path d="M 16.1875 0 L 16.1875 -22.71875 L 0 -22.71875 L 0 0 Z M 13.640625 -21.046875 L 8.125 -12.8125 L 2.578125 -21.046875 Z M 14.59375 -3.046875 L 9.078125 -11.359375 L 14.59375 -19.609375 Z M 2.578125 -1.640625 L 8.125 -9.875 L 13.640625 -1.640625 Z M 1.640625 -19.609375 L 7.109375 -11.359375 L 1.640625 -3.046875 Z M 1.640625 -19.609375 " style="stroke:none;"/>
</symbol>
<symbol id="glyph3-1" overflow="visible">
<path d="M 13.53125 -14.703125 L 8.125 -21.78125 L 16.078125 -21.78125 C 16.34375 -20.40625 16.53125 -18.96875 16.640625 -17.59375 C 17.78125 -17.359375 18.921875 -17.359375 20.03125 -17.59375 C 20.515625 -20.140625 20.59375 -22.265625 20.515625 -25 L 20.0625 -25.5 C 17.359375 -25.421875 13.03125 -25.421875 10 -25.421875 L 2.546875 -25.421875 C 1.515625 -24.359375 0.984375 -23.109375 0.875 -21.46875 L 7.53125 -12.6875 L 0.640625 -3.1875 C 0.640625 -2.09375 0.84375 -0.984375 1.21875 -0.03125 L 10.1875 -0.03125 C 13.21875 -0.03125 17.671875 -0.03125 20.375 0.03125 L 20.828125 -0.421875 C 21.125 -3.765625 21.28125 -6.421875 21.28125 -8.59375 C 20.140625 -8.9375 19.109375 -9 17.96875 -8.859375 C 17.671875 -7.40625 17.09375 -5.515625 16.609375 -4.1875 L 6.34375 -4.1875 L 13.53125 -14.0625 Z M 13.53125 -14.703125 " style="stroke:none;"/>
</symbol>
<symbol id="glyph3-2" overflow="visible">
<path d="M 2.734375 0.1875 C 4.375 0.109375 5.921875 -0.234375 7.109375 -0.796875 C 8.015625 -4.0625 9.46875 -6.609375 11.28125 -8.65625 C 12.34375 -3.765625 13.875 0.53125 15.359375 0.53125 C 17.25 0.53125 19.234375 -0.765625 20.484375 -2.125 C 20.375 -3.453125 19.875 -4.515625 19.15625 -5.28125 C 18.28125 -5.046875 17.171875 -4.859375 16.109375 -4.75 C 15.203125 -6.453125 14.546875 -8.125 13.828125 -10.984375 C 15.5 -12.234375 17.40625 -13.21875 19.453125 -13.984375 C 19.234375 -16.296875 18.390625 -17.96875 16.875 -18.765625 C 11.59375 -17.5625 8.09375 -11.734375 5.96875 -4.453125 L 5.8125 -4.484375 C 6.078125 -9.265625 6.421875 -13.21875 7.53125 -18.15625 C 6.53125 -18.4375 5.59375 -18.546875 4.59375 -18.546875 C 3.609375 -18.546875 2.65625 -18.4375 1.75 -18.15625 C 2.171875 -12.609375 2.28125 -6.921875 2.28125 -0.265625 Z M 2.734375 0.1875 " style="stroke:none;"/>
</symbol>
<symbol id="glyph3-3" overflow="visible">
<path d="M 10.0625 -18.921875 C 16.03125 -18.921875 19.5 -13.609375 19.5 -8.890625 C 19.5 -3.421875 16.5625 0.53125 10.5625 0.53125 C 4.59375 0.53125 1.140625 -4.78125 1.140625 -9.5 C 1.140625 -14.859375 3.953125 -18.921875 10.0625 -18.921875 Z M 10 -3.15625 C 12.875 -3.15625 13.90625 -7.03125 13.90625 -9.84375 C 13.90625 -11.859375 13.34375 -13.640625 12.546875 -14.671875 C 12.234375 -15.09375 11.25 -15.234375 10.640625 -15.234375 C 7.75 -15.234375 6.71875 -11.359375 6.71875 -8.546875 C 6.71875 -6.53125 7.296875 -4.75 8.09375 -3.71875 C 8.390625 -3.3125 9.390625 -3.15625 10 -3.15625 Z M 16.03125 -28.578125 C 15.09375 -29.984375 13.296875 -30.8125 11.28125 -30.8125 L 8.015625 -22.15625 C 8.4375 -21.359375 9.421875 -20.828125 10.484375 -20.75 L 16.03125 -27.9375 Z M 16.03125 -28.578125 " style="stroke:none;"/>
</symbol>
<symbol id="glyph3-4" overflow="visible">
<path d="M 0.765625 -28.125 C 0.609375 -26.53125 1.03125 -24.546875 1.96875 -23.109375 C 2.4375 -23.21875 3 -23.296875 3.984375 -23.296875 C 7.03125 -23.296875 8.625 -21.625 9.609375 -18.578125 C 6.65625 -12.875 2.84375 -7.03125 0.375 -2.734375 C 1.59375 -0.953125 3.375 0.078125 5.4375 0.34375 C 7.59375 -4.40625 9.34375 -8.0625 11.671875 -12.203125 L 14.4375 -3.578125 C 15.28125 -0.984375 16.421875 0.53125 17.671875 0.53125 C 19.5 0.53125 21.203125 -0.6875 22.421875 -2.046875 C 22.34375 -3.3125 22 -4.484375 21.171875 -5.203125 C 20.21875 -5.015625 19.421875 -4.828125 18.3125 -4.75 C 16.375 -9.765625 14.28125 -16 12.078125 -23.1875 C 11.0625 -26.484375 8.65625 -28.875 5.78125 -28.875 C 3.875 -28.875 2.234375 -28.65625 0.765625 -28.125 Z M 0.765625 -28.125 " style="stroke:none;"/>
</symbol>
<symbol id="glyph3-5" overflow="visible">
<path d="M 16.265625 -5.515625 C 16.078125 -1.0625 17.09375 0.53125 18.46875 0.53125 C 19.90625 0.53125 22.109375 -0.609375 23.375 -2.09375 C 23.21875 -3.53125 22.71875 -4.59375 22.046875 -5.28125 C 21.125 -5.046875 20.03125 -4.859375 19 -4.75 C 18.8125 -5.703125 18.703125 -6.84375 18.703125 -8.125 C 18.703125 -10.140625 19.265625 -13 20.96875 -17.359375 C 19.609375 -18.359375 18.046875 -18.8125 15.890625 -18.8125 L 15.421875 -18.359375 L 15.046875 -14.4375 L 14.890625 -14.4375 C 13.609375 -17.140625 11.703125 -19.03125 8.734375 -19.03125 C 3.984375 -19.03125 1.140625 -14.671875 1.140625 -8.96875 C 1.140625 -3.5 3.796875 0.53125 8.28125 0.53125 C 11.625 0.53125 14.28125 -1.671875 16.109375 -5.546875 Z M 7.140625 -4.328125 C 6.34375 -4.328125 5.546875 -4.5625 5.28125 -5.046875 C 4.984375 -5.515625 4.828125 -6.53125 4.828125 -7.453125 C 4.828125 -10.640625 6.578125 -13.5625 9.46875 -13.5625 C 11.25 -13.5625 12.921875 -12.609375 14.25 -11.015625 C 12.609375 -6.6875 9.53125 -4.328125 7.140625 -4.328125 Z M 7.140625 -4.328125 " style="stroke:none;"/>
</symbol>
<symbol id="glyph3-6" overflow="visible">
<path d="M 5.546875 -1.78125 C 6.765625 -0.421875 8.625 0.421875 10.9375 0.421875 C 15.15625 0.421875 18.65625 -2.890625 18.65625 -8.171875 C 18.65625 -14.59375 14.703125 -19.03125 9.15625 -19.03125 C 4.5625 -19.03125 1.515625 -15.125 1.515625 -7.75 C 1.515625 -3.609375 1.859375 3.71875 2.546875 9.875 C 4.640625 10.03125 6.6875 9.390625 8.203125 8.28125 C 6.921875 5.203125 5.859375 2.015625 5.390625 -1.75 Z M 10.40625 -13.5625 C 12.203125 -13.5625 13.71875 -12.875 14.21875 -12.28125 C 14.546875 -11.859375 14.96875 -10.71875 14.96875 -9.46875 C 14.96875 -6.125 12.078125 -4.640625 8.96875 -4.640625 C 7.640625 -4.640625 6.34375 -4.9375 5.203125 -5.4375 C 5.203125 -10.53125 7.03125 -13.5625 10.40625 -13.5625 Z M 10.40625 -13.5625 " style="stroke:none;"/>
</symbol>
</g>
</defs>
<g id="surface1">
<g style="fill:rgb(0%,0%,0%);fill-opacity:1;">
  <use x="67.9602" xlink:href="#glyph0-1" y="70"/>
</g>
<g style="fill:rgb(0%,0%,0%);fill-opacity:1;">
  <use x="89.8482" xlink:href="#glyph0-2" y="70"/>
</g>
<g style="fill:rgb(0%,0%,0%);fill-opacity:1;">
  <use x="109.0002" xlink:href="#glyph0-3" y="70"/>
  <use x="127.7342" xlink:href="#glyph0-4" y="70"/>
</g>
<g style="fill:rgb(0%,0%,0%);fill-opacity:1;">
  <use x="148.2542" xlink:href="#glyph0-5" y="70"/>
</g>
<g style="fill:rgb(0%,0%,0%);fill-opacity:1;">
  <use x="168.8882" xlink:href="#glyph0-6" y="70"/>
</g>
<g style="fill:rgb(0%,0%,0%);fill-opacity:1;">
  <use x="66.8962" xlink:href="#glyph1-1" y="155.006"/>
</g>
<g style="fill:rgb(0%,0%,0%);fill-opacity:1;">
  <use x="89.1642" xlink:href="#glyph1-2" y="155.006"/>
  <use x="108.6202" xlink:href="#glyph1-3" y="155.006"/>
  <use x="127.7342" xlink:href="#glyph1-4" y="155.006"/>
  <use x="148.5962" xlink:href="#glyph1-5" y="155.006"/>
  <use x="169.8002" xlink:href="#glyph1-6" y="155.006"/>
</g>
<g style="fill:rgb(0%,0%,0%);fill-opacity:1;">
  <use x="65.0342" xlink:href="#glyph2-1" y="240.012"/>
</g>
<g style="fill:rgb(0%,0%,0%);fill-opacity:1;">
  <use x="87.1502" xlink:href="#glyph2-2" y="240.012"/>
</g>
<g style="fill:rgb(0%,0%,0%);fill-opacity:1;">
  <use x="107.2142" xlink:href="#glyph2-3" y="240.012"/>
  <use x="127.1262" xlink:href="#glyph2-4" y="240.012"/>
</g>
<g style="fill:rgb(0%,0%,0%);fill-opacity:1;">
  <use x="148.7102" xlink:href="#glyph2-5" y="240.012"/>
  <use x="171.3202" xlink:href="#glyph2-6" y="240.012"/>
</g>
<g style="fill:rgb(0%,0%,0%);fill-opacity:1;">
  <use x="63.8182" xlink:href="#glyph3-1" y="325.018"/>
</g>
<g style="fill:rgb(0%,0%,0%);fill-opacity:1;">
  <use x="85.8582" xlink:href="#glyph3-2" y="325.018"/>
</g>
<g style="fill:rgb(0%,0%,0%);fill-opacity:1;">
  <use x="106.3022" xlink:href="#glyph3-3" y="325.018"/>
  <use x="126.7462" xlink:href="#glyph3-4" y="325.018"/>
</g>
<g style="fill:rgb(0%,0%,0%);fill-opacity:1;">
  <use x="148.7862" xlink:href="#glyph3-5" y="325.018"/>
  <use x="172.3462" xlink:href="#glyph3-6" y="325.018"/>
</g>
</g>
</svg>